Multidimensional Two Parameter Logistic Model with Predictors
…
# mean ~ mre(factor(id), sigma = get("Cov")),
f <- list(
  mean ~ mfe(x1, beta = get("beta1")) +
    mfe(x2, beta = get("beta2")) +
    mre(factor(id), sigma = get("Cov")),
  sd ~ I(0)
  )

n <- 300
(data_factor <- sim_model(formula = f, n = n, responses = m))

#> # A tibble: 600 x 8
#>       id      x1      x2 mre.factor.mean   mean    sd response response_label
#>    <int>   <dbl>   <dbl>           <dbl>  <dbl> <dbl>    <dbl>          <int>
#>  1     1  0.0941  0.0307          0.107   0.187     0    0.187              1
#>  2     2  1.81   -0.722          -0.0214  0.936     0    0.936              1
#>  3     3 -0.0656 -0.360          -0.160  -0.368     0   -0.368              1
#>  4     4 -0.778   0.438           0.714   0.360     0    0.360              1
#>  5     5 -1.64   -0.274           0.495  -0.790     0   -0.790              1
#>  6     6  0.226   0.861           0.0761  0.621     0    0.621              1
#>  7     7  0.493   0.775           0.197   0.892     0    0.892              1
#>  8     8  0.0640 -0.560          -0.0256 -0.231     0   -0.231              1
#>  9     9 -0.0359  2.10            0.629   1.54      0    1.54               1
#> 10    10  1.11   -0.413           0.331   0.930     0    0.930              1
#> # ... with 590 more rows
…
Remove burn-in and summarise parameters

# # Organize and summarise output
# samples_after_burin <- samples %>% purrr::map(~ .[(0.6 * iter):iter, ])
# samples_params <- samples_after_burin[1:3]
# samples_params_summary <- samples_params %>%
#   map(~ apply(., 2, function (x) quantile(x, c(0.025, 0.5, 0.975)))) %>%
#   map(~ as_tibble(t(.))) %>%
#   map(~ setNames(., make.names(names(.))))
#

as_tibble(samples, iter/2, select = c("c", "a")) %>%
  summary()

#> # A tibble: 30 x 6
#>    Parameters  `2.5%`    `10%`    `50%`   `90%` `97.5%`
#>    <fct>        <dbl>    <dbl>    <dbl>   <dbl>   <dbl>
#>  1 c[1]       -0.871  -0.791   -0.670   -0.570  -0.503 
#>  2 c[2]       -0.903  -0.805   -0.664   -0.537  -0.469 
#>  3 c[3]       -0.505  -0.419   -0.272   -0.119  -0.0351
#>  4 c[4]       -0.278  -0.205   -0.0492   0.0891  0.158 
#>  5 c[5]       -0.174  -0.108    0.00112  0.120   0.172 
#>  6 c[6]       -0.0557  0.00606  0.118    0.237   0.324 
#>  7 c[7]        0.276   0.336    0.456    0.581   0.648 
#>  8 c[8]        0.346   0.396    0.495    0.600   0.655 
#>  9 c[9]        0.602   0.668    0.813    1.01    1.13  
#> 10 c[10]       0.697   0.766    0.895    1.02    1.08  
#> # ... with 20 more rows
…
