Multidimensional Two Parameter Logistic Model
…
f <- list(
          # mean ~ mfe(x1, beta = get("beta")) +
  mean ~ mre(factor(id), sigma = get("Cov")),
  sd ~ I(0)
  )

n <- 300
(data_geo <- sim_model(formula = f, n = n, responses = m))

#> # A tibble: 600 x 6
#>       id mre.factor.mean    mean    sd response response_label
#>    <int>           <dbl>   <dbl> <dbl>    <dbl>          <int>
#>  1     1          1.25    1.25       0   1.25                1
#>  2     2          1.42    1.42       0   1.42                1
#>  3     3          0.840   0.840      0   0.840               1
#>  4     4         -0.0941 -0.0941     0  -0.0941              1
#>  5     5          1.40    1.40       0   1.40                1
#>  6     6          0.383   0.383      0   0.383               1
#>  7     7         -0.610  -0.610      0  -0.610               1
#>  8     8         -1.13   -1.13       0  -1.13                1
#>  9     9          0.831   0.831      0   0.831               1
#> 10    10          0.523   0.523      0   0.523               1
#> # ... with 590 more rows
…
Remove burn-in and summarise parameters

# # Organize and summarise output
# samples_after_burin <- samples %>% purrr::map(~ .[(0.6 * iter):iter, ])
# samples_params <- samples_after_burin[1:3]
# samples_params_summary <- samples_params %>%
#   map(~ apply(., 2, function (x) quantile(x, c(0.025, 0.5, 0.975)))) %>%
#   map(~ as_tibble(t(.))) %>%
#   map(~ setNames(., make.names(names(.))))
#

as_tibble(samples, iter/2, select = c("c", "a")) %>%
  summary()

#> # A tibble: 30 x 6
#>    Parameters  `2.5%`   `10%`  `50%`   `90%` `97.5%`
#>    <fct>        <dbl>   <dbl>  <dbl>   <dbl>   <dbl>
#>  1 c[1]       -1.08   -0.995  -0.836 -0.695  -0.621 
#>  2 c[2]       -1.26   -1.11   -0.886 -0.681  -0.577 
#>  3 c[3]       -1.05   -0.957  -0.770 -0.602  -0.531 
#>  4 c[4]       -0.308  -0.246  -0.128 -0.0169  0.0465
#>  5 c[5]       -0.323  -0.238  -0.102  0.0378  0.108 
#>  6 c[6]       -0.513  -0.406  -0.208 -0.0112  0.0780
#>  7 c[7]        0.0175  0.0897  0.239  0.378   0.458 
#>  8 c[8]        0.305   0.367   0.503  0.644   0.732 
#>  9 c[9]        0.366   0.452   0.649  0.870   0.995 
#> 10 c[10]       0.348   0.437   0.633  0.834   0.958 
#> # ... with 20 more rows
…
