Multidimensional Two Parameter Logistic Model
…
f <- list(
          # mean ~ mfe(x1, beta = get("beta")) +
  mean ~ mre(factor(id), sigma = get("Cov")),
  sd ~ I(0)
  )

n <- 300
(data_geo <- sim_model(formula = f, n = n, responses = m))

#> # A tibble: 600 x 6
#>       id mre.factor.mean   mean    sd response response_label
#>    <int>           <dbl>  <dbl> <dbl>    <dbl>          <int>
#>  1     1          -0.197 -0.197     0   -0.197              1
#>  2     2           0.754  0.754     0    0.754              1
#>  3     3          -0.546 -0.546     0   -0.546              1
#>  4     4           0.479  0.479     0    0.479              1
#>  5     5          -0.875 -0.875     0   -0.875              1
#>  6     6           0.133  0.133     0    0.133              1
#>  7     7           1.14   1.14      0    1.14               1
#>  8     8           0.336  0.336     0    0.336              1
#>  9     9           1.15   1.15      0    1.15               1
#> 10    10           0.813  0.813     0    0.813              1
#> # ... with 590 more rows
…
