Multidimensional Two Parameter Logistic Model
…
system.time(
samples <- spmirt(response = data_long$y, nobs = n, nitems = q, nfactors = 2,
                  L_rest = L_a, niter = iter, theta_init,
                  c_opt = list(prior_mean = 1, prior_sd = 1),
                  A_opt = list(prior_mean = a_mean, prior_sd = 1))
)

#>    user  system elapsed 
#>   7.860   7.606   4.079

samples_tib <- as_tibble(samples, iter/2)
summary(samples_tib)

#> # A tibble: 3,630 x 6
#>    Parameters   `2.5%`   `10%`  `50%`   `90%` `97.5%`
#>    <fct>         <dbl>   <dbl>  <dbl>   <dbl>   <dbl>
#>  1 Theta[1,1]  -0.458  -0.101   0.608  1.32     1.71 
#>  2 Theta[2,1]  -1.44   -1.05   -0.364  0.353    0.767
#>  3 Theta[3,1]  -1.34   -0.937  -0.213  0.457    0.789
#>  4 Theta[4,1]  -2.28   -1.84   -1.04  -0.265    0.126
#>  5 Theta[5,1]  -1.24   -0.849  -0.116  0.625    1.05 
#>  6 Theta[6,1]  -2.64   -2.13   -1.24  -0.509   -0.138
#>  7 Theta[7,1]  -1.39   -0.965  -0.191  0.544    0.999
#>  8 Theta[8,1]  -1.71   -1.35   -0.618  0.0728   0.452
#>  9 Theta[9,1]   0.0140  0.329   1.08   1.88     2.41 
#> 10 Theta[10,1] -0.314   0.0547  0.736  1.43     1.82 
#> # ... with 3,620 more rows
…
Remove burn-in and summarise parameters

# # Organize and summarise output
# samples_after_burin <- samples %>% purrr::map(~ .[(0.6 * iter):iter, ])
# samples_params <- samples_after_burin[1:3]
# samples_params_summary <- samples_params %>%
#   map(~ apply(., 2, function (x) quantile(x, c(0.025, 0.5, 0.975)))) %>%
#   map(~ as_tibble(t(.))) %>%
#   map(~ setNames(., make.names(names(.))))
#

as_tibble(samples, iter/2, select = c("c", "a")) %>%
  summary()

#> # A tibble: 30 x 6
#>    Parameters  `2.5%`  `10%`   `50%`   `90%` `97.5%`
#>    <fct>        <dbl>  <dbl>   <dbl>   <dbl>   <dbl>
#>  1 c[1]       -1.55   -1.39  -1.08   -0.867   -0.769
#>  2 c[2]       -1.59   -1.25  -0.865  -0.662   -0.571
#>  3 c[3]       -0.522  -0.462 -0.353  -0.248   -0.199
#>  4 c[4]       -0.535  -0.470 -0.341  -0.222   -0.168
#>  5 c[5]       -0.249  -0.178 -0.0552  0.0761   0.135
#>  6 c[6]       -0.341  -0.255 -0.0494  0.138    0.246
#>  7 c[7]        0.0459  0.124  0.294   0.452    0.535
#>  8 c[8]        0.1000  0.172  0.306   0.440    0.511
#>  9 c[9]        0.626   0.733  0.975   1.28     1.44 
#> 10 c[10]       0.383   0.458  0.608   0.773    0.856
#> # ... with 20 more rows
…
