Multidimensional Two Parameter Logistic Model
…
Remove burn-in and summarise parameters

# # Organize and summarise output
# samples_after_burin <- samples %>% purrr::map(~ .[(0.6 * iter):iter, ])
# samples_params <- samples_after_burin[1:3]
# samples_params_summary <- samples_params %>%
#   map(~ apply(., 2, function (x) quantile(x, c(0.025, 0.5, 0.975)))) %>%
#   map(~ as_tibble(t(.))) %>%
#   map(~ setNames(., make.names(names(.))))
#

as_tibble(samples, iter/2, select = c("c", "a")) %>%
  summary()

#> # A tibble: 30 x 6
#>    Parameters `2.5%`   `10%`    `50%`   `90%` `97.5%`
#>    <fct>       <dbl>   <dbl>    <dbl>   <dbl>   <dbl>
#>  1 c[1]       -1.00  -0.898  -0.751   -0.619  -0.545 
#>  2 c[2]       -0.689 -0.628  -0.495   -0.363  -0.279 
#>  3 c[3]       -1.02  -0.800  -0.471   -0.196  -0.110 
#>  4 c[4]       -0.384 -0.293  -0.165   -0.0354  0.0158
#>  5 c[5]       -0.178 -0.129   0.00242  0.121   0.192 
#>  6 c[6]       -0.148 -0.0607  0.120    0.321   0.471 
#>  7 c[7]        0.139  0.198   0.341    0.494   0.599 
#>  8 c[8]        0.304  0.389   0.556    0.740   0.842 
#>  9 c[9]        0.438  0.521   0.681    0.849   0.926 
#> 10 c[10]       0.501  0.586   0.789    1.01    1.08  
#> # ... with 20 more rows
…
