Multidimensional Two Parameter Logistic Model
…
f <- list(
          # mean ~ mfe(x1, beta = get("beta")) +
  mean ~ mre(factor(id), sigma = get("Cov")),
  sd ~ I(0)
  )

n <- 300
(data_geo <- sim_model(formula = f, n = n, responses = m))

#> # A tibble: 600 x 6
#>       id mre.factor.mean    mean    sd response response_label
#>    <int>           <dbl>   <dbl> <dbl>    <dbl>          <int>
#>  1     1          0.0973  0.0973     0   0.0973              1
#>  2     2          2.55    2.55       0   2.55                1
#>  3     3          1.30    1.30       0   1.30                1
#>  4     4          1.22    1.22       0   1.22                1
#>  5     5         -0.102  -0.102      0  -0.102               1
#>  6     6         -1.53   -1.53       0  -1.53                1
#>  7     7         -0.456  -0.456      0  -0.456               1
#>  8     8         -0.0642 -0.0642     0  -0.0642              1
#>  9     9         -1.85   -1.85       0  -1.85                1
#> 10    10         -0.547  -0.547      0  -0.547               1
#> # ... with 590 more rows
…
Remove burn-in and summarise parameters

# # Organize and summarise output
# samples_after_burin <- samples %>% purrr::map(~ .[(0.6 * iter):iter, ])
# samples_params <- samples_after_burin[1:3]
# samples_params_summary <- samples_params %>%
#   map(~ apply(., 2, function (x) quantile(x, c(0.025, 0.5, 0.975)))) %>%
#   map(~ as_tibble(t(.))) %>%
#   map(~ setNames(., make.names(names(.))))
#

as_tibble(samples, iter/2, select = c("c", "a")) %>%
  summary()

#> # A tibble: 30 x 6
#>    Parameters `2.5%`  `10%`   `50%`   `90%` `97.5%`
#>    <fct>       <dbl>  <dbl>   <dbl>   <dbl>   <dbl>
#>  1 c[1]       -0.760 -0.754 -0.715  -0.668  -0.650 
#>  2 c[2]       -0.587 -0.575 -0.500  -0.465  -0.455 
#>  3 c[3]       -0.263 -0.232 -0.164  -0.127  -0.111 
#>  4 c[4]       -0.227 -0.213 -0.170  -0.119  -0.104 
#>  5 c[5]       -0.151 -0.126 -0.0746 -0.0147 -0.0145
#>  6 c[6]        0.153  0.163  0.228   0.258   0.264 
#>  7 c[7]        0.232  0.238  0.313   0.374   0.404 
#>  8 c[8]        0.336  0.347  0.372   0.479   0.512 
#>  9 c[9]        0.384  0.404  0.476   0.610   0.611 
#> 10 c[10]       0.399  0.476  0.640   0.734   0.736 
#> # ... with 20 more rows
…
