Geostatistical Probit Data Simulation
…
COMPARE GAUSSIAN PROCESSES

n <- 2000
data_pred <- tibble::tibble(id = 1:n, s1 = runif(n), s2 = runif(n))
# (data <- gp_probit_sim(data_pred, c(0.5, 1, 3, 5), c(0.0001, 0.02, 0.04, 0.05, 0.07)))
(data <- gp_probit_sim(data_pred,
                       c(-0.5, 0, 0.5),
                       c(0.5, 1, 1.5, 2),
                       c(0.03, 0.05)))

#> # A tibble: 48,000 x 10
#>     beta0 sigma2    phi    id    s1     s2 gp.list.prob  prob  size response
#>     <dbl>  <dbl>  <dbl> <int> <dbl>  <dbl>        <dbl> <dbl> <dbl>    <int>
#>  1 -0.500  0.500 0.0300     1 0.805 0.443       -0.0526 0.290  1.00        1
#>  2 -0.500  0.500 0.0300     2 0.389 0.512        0.689  0.575  1.00        1
#>  3 -0.500  0.500 0.0300     3 0.158 0.348        0.452  0.481  1.00        1
#>  4 -0.500  0.500 0.0300     4 0.252 0.562        0.117  0.351  1.00        0
#>  5 -0.500  0.500 0.0300     5 0.697 0.133        0.869  0.644  1.00        0
#>  6 -0.500  0.500 0.0300     6 0.955 0.0957      -0.520  0.154  1.00        0
#>  7 -0.500  0.500 0.0300     7 0.470 0.0228       0.406  0.463  1.00        1
#>  8 -0.500  0.500 0.0300     8 0.797 0.175        0.511  0.504  1.00        0
#>  9 -0.500  0.500 0.0300     9 0.626 0.154        1.71   0.887  1.00        1
#> 10 -0.500  0.500 0.0300    10 0.976 0.968       -0.751  0.106  1.00        1
#> # ... with 47,990 more rows
…
