Geostatistical Probit Data Simulation
…
COMPARE GAUSSIAN PROCESSES

(data <- gp_probit_sim(data_pred, c(0.5, 1, 3, 5), c(0.0001, 0.02, 0.04, 0.09, 0.2)))

#> # A tibble: 20,000 x 9
#>    sigma2      phi    id     s1     s2 gp.list.prob   prob  size response
#>     <dbl>    <dbl> <int>  <dbl>  <dbl>        <dbl>  <dbl> <dbl>    <int>
#>  1  0.500 0.000100     1 0.822  0.886        -1.35  0.0877  1.00        0
#>  2  0.500 0.000100     2 0.204  0.499         1.19  0.883   1.00        1
#>  3  0.500 0.000100     3 0.0110 0.275        -0.185 0.427   1.00        1
#>  4  0.500 0.000100     4 0.493  0.380         0.106 0.542   1.00        1
#>  5  0.500 0.000100     5 0.984  0.255        -0.266 0.395   1.00        0
#>  6  0.500 0.000100     6 0.657  0.171         0.603 0.727   1.00        1
#>  7  0.500 0.000100     7 0.417  0.680        -1.24  0.108   1.00        0
#>  8  0.500 0.000100     8 0.655  0.0616       -1.48  0.0698  1.00        0
#>  9  0.500 0.000100     9 0.220  0.692         0.467 0.680   1.00        1
#> 10  0.500 0.000100    10 0.253  0.959        -0.180 0.429   1.00        0
#> # ... with 19,990 more rows
…
